AIP (input):
593002N 0243035E
593227N 0243351E
593142N 0245804E
593012N 0251134E
591918N 0251110E
591718N 0245834E
591800N 0243934E
591908N 0243231E
592154N 0243044E
593002N 0243035E

Reference Google maps (correct output):
593649N 0245122E
593188N 0245419E
592999N 0246594E
592883N 0249761E
593216N 0251861E
595033N 0251927E
595283N 0249677E
595408N 0245641E
595005N 0245097E
593649N 0245122E